%!PS-Adobe-3.0 EPSF-3.0
%%Creator: cairo 1.15.10 (http://cairographics.org)
%%CreationDate: Wed Feb 14 02:27:30 2018
%%Pages: 1
%%DocumentData: Clean7Bit
%%LanguageLevel: 2
%%BoundingBox: 2 0 13 15
%%EndComments
%%BeginProlog
50 dict begin
/q { gsave } bind def
/Q { grestore } bind def
/cm { 6 array astore concat } bind def
/w { setlinewidth } bind def
/J { setlinecap } bind def
/j { setlinejoin } bind def
/M { setmiterlimit } bind def
/d { setdash } bind def
/m { moveto } bind def
/l { lineto } bind def
/c { curveto } bind def
/h { closepath } bind def
/re { exch dup neg 3 1 roll 5 3 roll moveto 0 rlineto
      0 exch rlineto 0 rlineto closepath } bind def
/S { stroke } bind def
/f { fill } bind def
/f* { eofill } bind def
/n { newpath } bind def
/W { clip } bind def
/W* { eoclip } bind def
/BT { } bind def
/ET { } bind def
/BDC { mark 3 1 roll /BDC pdfmark } bind def
/EMC { mark /EMC pdfmark } bind def
/cairo_store_point { /cairo_point_y exch def /cairo_point_x exch def } def
/Tj { show currentpoint cairo_store_point } bind def
/TJ {
  {
    dup
    type /stringtype eq
    { show } { -0.001 mul 0 cairo_font_matrix dtransform rmoveto } ifelse
  } forall
  currentpoint cairo_store_point
} bind def
/cairo_selectfont { cairo_font_matrix aload pop pop pop 0 0 6 array astore
    cairo_font exch selectfont cairo_point_x cairo_point_y moveto } bind def
/Tf { pop /cairo_font exch def /cairo_font_matrix where
      { pop cairo_selectfont } if } bind def
/Td { matrix translate cairo_font_matrix matrix concatmatrix dup
      /cairo_font_matrix exch def dup 4 get exch 5 get cairo_store_point
      /cairo_font where { pop cairo_selectfont } if } bind def
/Tm { 2 copy 8 2 roll 6 array astore /cairo_font_matrix exch def
      cairo_store_point /cairo_font where { pop cairo_selectfont } if } bind def
/g { setgray } bind def
/rg { setrgbcolor } bind def
/d1 { setcachedevice } bind def
/cairo_data_source {
  CairoDataIndex CairoData length lt
    { CairoData CairoDataIndex get /CairoDataIndex CairoDataIndex 1 add def }
    { () } ifelse
} def
/cairo_flush_ascii85_file { cairo_ascii85_file status { cairo_ascii85_file flushfile } if } def
/cairo_image { image cairo_flush_ascii85_file } def
/cairo_imagemask { imagemask cairo_flush_ascii85_file } def
%%EndProlog
%%BeginSetup
%%EndSetup
%%Page: 1 1
%%BeginPageSetup
%%PageBoundingBox: 2 0 13 15
%%EndPageSetup
q 2 0 11 15 rectclip
1 0 0 -1 0 15 cm q
0 g
12.324 11.25 m 10.789 7.418 9 6.41 9 4.5 c 9 2.25 l 9.375 2.25 l 9.582 
2.25 9.75 2.082 9.75 1.875 c 9.75 1.125 l 9.75 0.918 9.582 0.75 9.375 0.75
 c 5.625 0.75 l 5.418 0.75 5.25 0.918 5.25 1.125 c 5.25 1.875 l 5.25 2.082
 5.418 2.25 5.625 2.25 c 6 2.25 l 6 4.5 l 6 6.41 4.211 7.418 2.676 11.25
 c 2.188 12.469 0.934 14.25 7.5 14.25 c 14.066 14.25 12.812 12.469 12.324
 11.25 c h
11.109 12.562 m 10.586 12.723 9.535 12.898 7.5 12.898 c 5.465 12.898 4.414
 12.723 3.891 12.562 c 3.703 12.508 3.629 12.289 3.695 12.094 c 3.859 11.59
 4.172 10.723 4.754 9.75 c 6.176 7.383 7.652 10.125 8.879 10.125 c 10.105
 10.125 9.77 8.953 10.246 9.75 c 10.828 10.723 11.141 11.59 11.305 12.094
 c 11.371 12.289 11.297 12.508 11.109 12.562 c h
11.109 12.562 m f*
Q Q
showpage
%%Trailer
end
%%EOF
