%!PS-Adobe-3.0 EPSF-3.0
%%Creator: cairo 1.16.0 (https://cairographics.org)
%%CreationDate: Sun Mar 31 12:52:43 2019
%%Pages: 1
%%DocumentData: Clean7Bit
%%LanguageLevel: 2
%%BoundingBox: 0 1 225 184
%%EndComments
%%BeginProlog
50 dict begin
/q { gsave } bind def
/Q { grestore } bind def
/cm { 6 array astore concat } bind def
/w { setlinewidth } bind def
/J { setlinecap } bind def
/j { setlinejoin } bind def
/M { setmiterlimit } bind def
/d { setdash } bind def
/m { moveto } bind def
/l { lineto } bind def
/c { curveto } bind def
/h { closepath } bind def
/re { exch dup neg 3 1 roll 5 3 roll moveto 0 rlineto
      0 exch rlineto 0 rlineto closepath } bind def
/S { stroke } bind def
/f { fill } bind def
/f* { eofill } bind def
/n { newpath } bind def
/W { clip } bind def
/W* { eoclip } bind def
/BT { } bind def
/ET { } bind def
/BDC { mark 3 1 roll /BDC pdfmark } bind def
/EMC { mark /EMC pdfmark } bind def
/cairo_store_point { /cairo_point_y exch def /cairo_point_x exch def } def
/Tj { show currentpoint cairo_store_point } bind def
/TJ {
  {
    dup
    type /stringtype eq
    { show } { -0.001 mul 0 cairo_font_matrix dtransform rmoveto } ifelse
  } forall
  currentpoint cairo_store_point
} bind def
/cairo_selectfont { cairo_font_matrix aload pop pop pop 0 0 6 array astore
    cairo_font exch selectfont cairo_point_x cairo_point_y moveto } bind def
/Tf { pop /cairo_font exch def /cairo_font_matrix where
      { pop cairo_selectfont } if } bind def
/Td { matrix translate cairo_font_matrix matrix concatmatrix dup
      /cairo_font_matrix exch def dup 4 get exch 5 get cairo_store_point
      /cairo_font where { pop cairo_selectfont } if } bind def
/Tm { 2 copy 8 2 roll 6 array astore /cairo_font_matrix exch def
      cairo_store_point /cairo_font where { pop cairo_selectfont } if } bind def
/g { setgray } bind def
/rg { setrgbcolor } bind def
/d1 { setcachedevice } bind def
/cairo_data_source {
  CairoDataIndex CairoData length lt
    { CairoData CairoDataIndex get /CairoDataIndex CairoDataIndex 1 add def }
    { () } ifelse
} def
/cairo_flush_ascii85_file { cairo_ascii85_file status { cairo_ascii85_file flushfile } if } def
/cairo_image { image cairo_flush_ascii85_file } def
/cairo_imagemask { imagemask cairo_flush_ascii85_file } def
%%EndProlog
%%BeginSetup
%%EndSetup
%%Page: 1 1
%%BeginPageSetup
%%PageBoundingBox: 0 1 225 184
%%EndPageSetup
q 0 1 225 183 rectclip
1 0 0 -1 0 184 cm q
0.298039 0.337255 0.415686 rg
71.039 182.387 m 155.387 182.387 201.512 112.512 201.512 51.918 c 201.512
 49.93 201.469 47.957 201.379 45.988 c 210.336 39.516 218.117 31.438 224.254
 22.242 c 216.039 25.895 207.195 28.355 197.922 29.465 c 207.387 23.785 
214.656 14.805 218.086 4.102 c 209.227 9.352 199.414 13.172 188.969 15.23
 c 180.598 6.316 168.688 0.742 155.496 0.742 c 130.172 0.742 109.637 21.277
 109.637 46.594 c 109.637 50.191 110.039 53.691 110.828 57.047 c 72.715 
55.129 38.922 36.883 16.305 9.137 c 12.367 15.914 10.094 23.785 10.094 32.184
 c 10.094 48.094 18.191 62.141 30.5 70.355 c 22.977 70.121 15.91 68.059 
9.734 64.621 c 9.727 64.812 9.727 65 9.727 65.207 c 9.727 87.414 25.535 
105.953 46.516 110.156 c 42.66 111.207 38.609 111.77 34.422 111.77 c 31.473
 111.77 28.598 111.48 25.805 110.941 c 31.645 129.164 48.57 142.422 68.641
 142.793 c 52.945 155.094 33.176 162.422 11.688 162.422 c 7.992 162.422 
4.34 162.211 0.75 161.785 c 21.047 174.793 45.145 182.383 71.043 182.383
 c f
Q Q
showpage
%%Trailer
end
%%EOF
